Add grid — add_grid • monitoR
…
add_grid(skink, grid44)
#> # A tibble: 6,728 × 6
#>    time                    X     Y behaviour             grid  zone
#>    <dttm>              <dbl> <dbl> <chr>                <dbl> <dbl>
#>  1 2024-03-25 14:34:01   229   213 Basking                  7     1
#>  2 2024-03-25 14:35:01   248   200 Basking                  8     1
#>  3 2024-03-25 14:36:01   235   221 Basking                  8     1
#>  4 2024-03-25 14:37:01   250   207 Movement                 8     1
#>  5 2024-03-25 14:38:01   252   214 Basking                  8     1
#>  6 2024-03-25 14:39:01   248   215 Basking                  8     1
#>  7 2024-03-25 14:40:01   255   275 Basking                 12     1
#>  8 2024-03-25 14:41:01   256   283 Out Of Sight/ Hiding    12     1
#>  9 2024-03-25 14:42:01   190   370 Out Of Sight/ Hiding    15     1
#> 10 2024-03-25 14:47:01   141   401 Out Of Sight/ Hiding    14     1
#> # ℹ 6,718 more rows
…
