Cassowary case study • monitoR
…
Figure 1: Grid plot the cassowary dataset.

Cassowary side

We have two cassowaries - Martina and Jeffrey. They are let out into on of the sides. We have information about which side they are in.

martina <- cassowary_grid |>
  filter(cassowary == "Martina")
jeffrey <- cassowary_grid |>
  filter(cassowary == "Jeffrey")
jeffrey
#> # A tibble: 2,174 × 9
#>    time                    X     Y behaviour cassowary jeffery_side martina_side
#>    <dttm>              <dbl> <dbl> <chr>     <chr>     <chr>        <chr>       
#>  1 2023-09-08 15:02:58   285   329 Laying D… Jeffrey   Left         Right       
#>  2 2023-09-08 15:03:58   282   330 Laying D… Jeffrey   Left         Right       
#>  3 2023-09-08 15:04:58   283   306 Laying D… Jeffrey   Left         Right       
#>  4 2023-09-08 15:05:58   279   324 Laying D… Jeffrey   Left         Right       
#>  5 2023-09-08 15:06:58   273   342 Laying D… Jeffrey   Left         Right       
#>  6 2023-09-08 15:07:58   277   353 Laying D… Jeffrey   Left         Right       
#>  7 2023-09-08 15:08:58   287   352 Laying D… Jeffrey   Left         Right       
#>  8 2023-09-08 15:09:58   282   369 Laying D… Jeffrey   Left         Right       
#>  9 2023-09-08 15:10:58   284   370 Laying D… Jeffrey   Left         Right       
#> 10 2023-09-08 15:11:58   166   217 Locomoti… Jeffrey   Left         Right       
#> # ℹ 2,164 more rows
#> # ℹ 2 more variables: grid <dbl>, zone <chr>
…
